{
   "pagination":{
      "current_page":1,
      "next_page":2,
      "prev_page":null,
      "total_pages":5,
      "total_entries":100,
      "per_page":20
   },
   "topics":[
      {
         "id":1,
         "title":"What did you have for lunch today?",
         "post_count":123,
         "is_anonymous":true,
         "is_locked":true,
         "is_author":false,
         "is_saved":true,
         "first_post":{
            "message":"Today I had a...",
            "photos":[
               {
                  "url":"https://i.insider.com/5d24d6b921a861093e71fef3?width=1800&format=jpeg&auto=webp"
               },
               {
                  "url":"https://i.insider.com/5d24d6b921a861093e71fef3?width=1800&format=jpeg&auto=webp"
               },
               {
                  "url":"https://i.insider.com/5d24d6b921a861093e71fef3?width=1800&format=jpeg&auto=webp"
               },
               {
                  "url":"https://i.insider.com/5d24d6b921a861093e71fef3?width=1800&format=jpeg&auto=webp"
               },
               {
                  "url":"https://i.insider.com/5d24d6b921a861093e71fef3?width=1800&format=jpeg&auto=webp"
               },
               {
                  "url":"https://i.insider.com/5d24d6b921a861093e71fef3?width=1800&format=jpeg&auto=webp"
               },
               {
                  "url":"https://i.insider.com/5d24d6b921a861093e71fef3?width=1800&format=jpeg&auto=webp"
               },
               {
                  "url":"https://i.insider.com/5d24d6b921a861093e71fef3?width=1800&format=jpeg&auto=webp"
               }
            ]
         },
         "last_post":{
            "created_at":"2020-10-23T18:25:43.511Z",
            "author_login":"secondchancesboutique"
         }
      },
      {
         "id":2,
         "title":"What did you have for lunch today?",
         "post_count":123,
         "is_anonymous":true,
         "is_locked":true,
         "is_author":false,
         "is_saved":true,
         "first_post":{
            "message":"Today I had a...",
            "photos":[
                {
                  "url":"https://i.insider.com/5d24d6b921a861093e71fef3?width=1800&format=jpeg&auto=webp"
               }
            ]
         },
         "last_post":{
            "created_at":"2020-10-23T18:25:43.511Z",
            "author_login":"secondchancesboutique"
         }
      }
   ]
}
